%YAML 1.1
%TAG !u! tag:unity3d.com,2011:
--- !u!114 &11400000
MonoBehaviour:
  m_ObjectHideFlags: 0
  m_CorrespondingSourceObject: {fileID: 0}
  m_PrefabInstance: {fileID: 0}
  m_PrefabAsset: {fileID: 0}
  m_GameObject: {fileID: 0}
  m_Enabled: 1
  m_EditorHideFlags: 0
  m_Script: {fileID: 11500000, guid: 0fee1f5aac6e6834e90d1b39ee97b9fc, type: 3}
  m_Name: River_Stream
  m_EditorClassIdentifier: 
  trigger:
  - {fileID: 11400000, guid: f8dc38dd8f0bb3d469b2825df6826ed9, type: 2}
  scoutingTest: {fileID: 11400000, guid: b858d65fc4f39f347b233a5f60ef81f8, type: 2}
  scoutingSuccessText: You find a river. The current seems to be strong, it looks
    like it won't be easy to get through that. Maybe the stream will calm down elsewhere.
  scoutingSuccessOutcomes:
  - {fileID: 11400000, guid: 0d6bc94ac191d1a4ba89abe201795432, type: 2}
  scoutingFailureText: One member is missing. "We had our sight on him, and he instantly
    disappeared. All we can say is that there's water, a strong stream..."
  scoutingFailureOutcomes:
  - {fileID: 11400000, guid: 989a0956f60e25b40a0a8695fef9249a, type: 2}
  title: A stream, here?
  text: You face a river with a strong stream. No way to walk through this.
  illustration: {fileID: 0}
  choices:
  - {fileID: 11400000, guid: ca8153b6883381f43ae5dc1652d3fefe, type: 2}
  - {fileID: 11400000, guid: be24969512cc212428a8f57ee52fe6a5, type: 2}
