%YAML 1.1
%TAG !u! tag:unity3d.com,2011:
--- !u!114 &11400000
MonoBehaviour:
  m_ObjectHideFlags: 0
  m_CorrespondingSourceObject: {fileID: 0}
  m_PrefabInstance: {fileID: 0}
  m_PrefabAsset: {fileID: 0}
  m_GameObject: {fileID: 0}
  m_Enabled: 1
  m_EditorHideFlags: 0
  m_Script: {fileID: 11500000, guid: c8fbcd7ea79bfd64cb2722b86960c92a, type: 3}
  m_Name: EOutcome_Lose_One
  m_EditorClassIdentifier: 
  effectType: 0
  effectMinMax: {x: 0, y: 0}
  goBackToPreviousTile: 0
  rearmEvent: 0
  replaceEvent: {fileID: 0}
  selectionMode: 3
  targetsMinMax: {x: 1, y: 1}
  targetsMinMaxPercent: {x: 0, y: 0}
