%YAML 1.1
%TAG !u! tag:unity3d.com,2011:
--- !u!114 &11400000
MonoBehaviour:
  m_ObjectHideFlags: 0
  m_CorrespondingSourceObject: {fileID: 0}
  m_PrefabInstance: {fileID: 0}
  m_PrefabAsset: {fileID: 0}
  m_GameObject: {fileID: 0}
  m_Enabled: 1
  m_EditorHideFlags: 0
  m_Script: {fileID: 11500000, guid: ad02b1d24f60629488adbae1dbe339b8, type: 3}
  m_Name: GPoison_Choice_Taste
  m_EditorClassIdentifier: 
  text: Taste the fruits
  test: {fileID: 11400000, guid: 5dc22beff406ab7408733587b1d7d440, type: 2}
  outcomeSuccessText: You decide to let the most hungry of your men eat some of these
    fruits. Moments later, he starts to grab his belly, and clearly feels pain. It's
    clear, this food can't be eaten...
  outcomesSuccess:
  - {fileID: 11400000, guid: 679fca9bd5a6e8044a9a793b677efb97, type: 2}
  outcomeFailureText: 
  outcomesFailure: []
