%YAML 1.1
%TAG !u! tag:unity3d.com,2011:
--- !u!114 &11400000
MonoBehaviour:
  m_ObjectHideFlags: 0
  m_CorrespondingSourceObject: {fileID: 0}
  m_PrefabInstance: {fileID: 0}
  m_PrefabAsset: {fileID: 0}
  m_GameObject: {fileID: 0}
  m_Enabled: 1
  m_EditorHideFlags: 0
  m_Script: {fileID: 11500000, guid: ad02b1d24f60629488adbae1dbe339b8, type: 3}
  m_Name: PPoison_Choice_Rest
  m_EditorClassIdentifier: 
  text: Don't touch the fruits
  test: {fileID: 11400000, guid: 5dc22beff406ab7408733587b1d7d440, type: 2}
  outcomeSuccessText: We don't know if this food is good or bad. Let's not try it,
    at least we got on a fairly safe place!
  outcomesSuccess:
  - {fileID: 11400000, guid: c47991c0ec321d840919d1f79009e58e, type: 2}
  outcomeFailureText: 
  outcomesFailure: []
